{
  "identifiers": [
    {
      "uri": "https://doi.org/10.1002/zoo.10027",
      "tokenized": {
        "prefix": "doi",
        "suffix": "10.1002/zoo.10027"
      }
    }
  ],
  "relationships": [
    {
      "relationship-type": "citation",
      "object": {
        "identifiers": [
          {
            "uri": "https://doi.org/10.1530/jrf.0.1010213",
            "tokenized": {
              "prefix": "doi",
              "suffix": "10.1530/jrf.0.1010213"
            }
          }
        ],
        "relationships": [],
        "properties": [
          {
            "values": {
              "doi": "10.1530/jrf.0.1010213",
              "key": "10.1002/ajpa.1101-BIB36",
              "isbn": null,
              "issn": null,
              "year": "1994",
              "issue": null,
              "author": "Wasser",
              "volume": "101",
              "edition": null,
              "component": null,
              "isbn-type": "print",
              "issn-type": "print",
              "first-page": "213",
              "series-title": null,
              "unstructured": null,
              "volume-title": null,
              "article-title": null,
              "journal-title": "J Reprod Fertil",
              "standards-body": null,
              "doi-asserted-by": "crossref",
              "standard-designator": null
            },
            "asserted-by": [
              {
                "identifiers": [
                  {
                    "uri": "https://id.crossref.org/member/311",
                    "tokenized": {
                      "prefix": "member",
                      "suffix": "311"
                    }
                  },
                  {
                    "uri": "http://id.crossref.org/item/1400506",
                    "tokenized": {
                      "prefix": "item",
                      "suffix": "1400506"
                    }
                  }
                ],
                "relationships": [],
                "properties": [],
                "pk": 1400506
              }
            ]
          }
        ],
        "pk": 4981
      },
      "asserted-by": [
        {
          "identifiers": [
            {
              "uri": "https://id.crossref.org/member/311",
              "tokenized": {
                "prefix": "member",
                "suffix": "311"
              }
            },
            {
              "uri": "http://id.crossref.org/item/1400506",
              "tokenized": {
                "prefix": "item",
                "suffix": "1400506"
              }
            }
          ],
          "relationships": [],
          "properties": [],
          "pk": 1400506
        }
      ]
    },
    {
      "relationship-type": "citation",
      "object": {
        "identifiers": [
          {
            "uri": "https://id.crossref.org/blank/c94cca6c40161f50f1189de7b15344fa109b7a43",
            "tokenized": {
              "prefix": "cr-blank",
              "suffix": "c94cca6c40161f50f1189de7b15344fa109b7a43"
            }
          }
        ],
        "relationships": [],
        "properties": [
          {
            "values": {
              "doi": null,
              "key": "10.1002/zoo.10027-BIB10",
              "isbn": null,
              "issn": null,
              "year": "1990",
              "issue": null,
              "author": "Kleiman",
              "volume": null,
              "edition": null,
              "component": null,
              "isbn-type": "print",
              "issn-type": "print",
              "first-page": "107",
              "series-title": null,
              "unstructured": "1990. Auditory communication in the giant panda: motivation and function. In: editors. Proceedings, Second International Symposium on the Giant Panda. Tokyo: Tokyo Zoological Park Society. p 107-22.",
              "volume-title": "Proceedings, Second International Symposium on the Giant Panda",
              "article-title": null,
              "journal-title": null,
              "standards-body": null,
              "doi-asserted-by": "publisher",
              "standard-designator": null
            },
            "asserted-by": [
              {
                "identifiers": [
                  {
                    "uri": "https://id.crossref.org/member/311",
                    "tokenized": {
                      "prefix": "member",
                      "suffix": "311"
                    }
                  },
                  {
                    "uri": "http://id.crossref.org/item/1400506",
                    "tokenized": {
                      "prefix": "item",
                      "suffix": "1400506"
                    }
                  }
                ],
                "relationships": [],
                "properties": [],
                "pk": 1400506
              }
            ]
          }
        ],
        "pk": 48316
      },
      "asserted-by": [
        {
          "identifiers": [
            {
              "uri": "https://id.crossref.org/member/311",
              "tokenized": {
                "prefix": "member",
                "suffix": "311"
              }
            },
            {
              "uri": "http://id.crossref.org/item/1400506",
              "tokenized": {
                "prefix": "item",
                "suffix": "1400506"
              }
            }
          ],
          "relationships": [],
          "properties": [],
          "pk": 1400506
        }
      ]
    },
    {
      "relationship-type": "citation",
      "object": {
        "identifiers": [
          {
            "uri": "https://id.crossref.org/blank/c56ed26030860ac2519b696585caebcfc87b59d3",
            "tokenized": {
              "prefix": "cr-blank",
              "suffix": "c56ed26030860ac2519b696585caebcfc87b59d3"
            }
          }
        ],
        "relationships": [],
        "properties": [
          {
            "values": {
              "doi": null,
              "key": "10.1002/zoo.10027-BIB16",
              "isbn": null,
              "issn": null,
              "year": "2000",
              "issue": null,
              "author": "Nelson",
              "volume": null,
              "edition": null,
              "component": null,
              "isbn-type": "print",
              "issn-type": "print",
              "first-page": null,
              "series-title": null,
              "unstructured": "2000. An introduction to behavioral endocrinology. Sunderland, MA: Sinauer Associates.",
              "volume-title": "An introduction to behavioral endocrinology",
              "article-title": null,
              "journal-title": null,
              "standards-body": null,
              "doi-asserted-by": "publisher",
              "standard-designator": null
            },
            "asserted-by": [
              {
                "identifiers": [
                  {
                    "uri": "https://id.crossref.org/member/311",
                    "tokenized": {
                      "prefix": "member",
                      "suffix": "311"
                    }
                  },
                  {
                    "uri": "http://id.crossref.org/item/1400506",
                    "tokenized": {
                      "prefix": "item",
                      "suffix": "1400506"
                    }
                  }
                ],
                "relationships": [],
                "properties": [],
                "pk": 1400506
              }
            ]
          }
        ],
        "pk": 48317
      },
      "asserted-by": [
        {
          "identifiers": [
            {
              "uri": "https://id.crossref.org/member/311",
              "tokenized": {
                "prefix": "member",
                "suffix": "311"
              }
            },
            {
              "uri": "http://id.crossref.org/item/1400506",
              "tokenized": {
                "prefix": "item",
                "suffix": "1400506"
              }
            }
          ],
          "relationships": [],
          "properties": [],
          "pk": 1400506
        }
      ]
    },
    {
      "relationship-type": "citation",
      "object": {
        "identifiers": [
          {
            "uri": "https://id.crossref.org/blank/4b8166800b634e897865cc0000ba0cdc7f2feda1",
            "tokenized": {
              "prefix": "cr-blank",
              "suffix": "4b8166800b634e897865cc0000ba0cdc7f2feda1"
            }
          }
        ],
        "relationships": [],
        "properties": [
          {
            "values": {
              "doi": null,
              "key": "10.1002/zoo.10027-BIB04",
              "isbn": null,
              "issn": null,
              "year": "1985",
              "issue": null,
              "author": "Clemens",
              "volume": "7",
              "edition": null,
              "component": null,
              "isbn-type": "print",
              "issn-type": "print",
              "first-page": "183",
              "series-title": null,
              "unstructured": "1985. The role of gonadal hormones in the activation of feminine sexual behavior. In: eds. Handbook of behavioral neurobiology, vol. 7. New York: Plenum. p 183-227.",
              "volume-title": "Handbook of behavioral neurobiology",
              "article-title": null,
              "journal-title": null,
              "standards-body": null,
              "doi-asserted-by": "publisher",
              "standard-designator": null
            },
            "asserted-by": [
              {
                "identifiers": [
                  {
                    "uri": "https://id.crossref.org/member/311",
                    "tokenized": {
                      "prefix": "member",
                      "suffix": "311"
                    }
                  },
                  {
                    "uri": "http://id.crossref.org/item/1400506",
                    "tokenized": {
                      "prefix": "item",
                      "suffix": "1400506"
                    }
                  }
                ],
                "relationships": [],
                "properties": [],
                "pk": 1400506
              }
            ]
          }
        ],
        "pk": 165182
      },
      "asserted-by": [
        {
          "identifiers": [
            {
              "uri": "https://id.crossref.org/member/311",
              "tokenized": {
                "prefix": "member",
                "suffix": "311"
              }
            },
            {
              "uri": "http://id.crossref.org/item/1400506",
              "tokenized": {
                "prefix": "item",
                "suffix": "1400506"
              }
            }
          ],
          "relationships": [],
          "properties": [],
          "pk": 1400506
        }
      ]
    },
    {
      "relationship-type": "citation",
      "object": {
        "identifiers": [
          {
            "uri": "https://doi.org/10.1016/s0378-4320(98)00111-0",
            "tokenized": {
              "prefix": "doi",
              "suffix": "10.1016/s0378-4320(98)00111-0"
            }
          }
        ],
        "relationships": [],
        "properties": [
          {
            "values": {
              "doi": "10.1016/S0378-4320(98)00111-0",
              "key": "10.1002/zoo.10027-BIB07",
              "isbn": null,
              "issn": null,
              "year": "1998",
              "issue": null,
              "author": "Heistermann",
              "volume": "53",
              "edition": null,
              "component": null,
              "isbn-type": "print",
              "issn-type": "print",
              "first-page": "157",
              "series-title": null,
              "unstructured": null,
              "volume-title": null,
              "article-title": null,
              "journal-title": "Anim Reprod Sci",
              "standards-body": null,
              "doi-asserted-by": "crossref",
              "standard-designator": null
            },
            "asserted-by": [
              {
                "identifiers": [
                  {
                    "uri": "https://id.crossref.org/member/311",
                    "tokenized": {
                      "prefix": "member",
                      "suffix": "311"
                    }
                  },
                  {
                    "uri": "http://id.crossref.org/item/1400506",
                    "tokenized": {
                      "prefix": "item",
                      "suffix": "1400506"
                    }
                  }
                ],
                "relationships": [],
                "properties": [],
                "pk": 1400506
              }
            ]
          }
        ],
        "pk": 165183
      },
      "asserted-by": [
        {
          "identifiers": [
            {
              "uri": "https://id.crossref.org/member/311",
              "tokenized": {
                "prefix": "member",
                "suffix": "311"
              }
            },
            {
              "uri": "http://id.crossref.org/item/1400506",
              "tokenized": {
                "prefix": "item",
                "suffix": "1400506"
              }
            }
          ],
          "relationships": [],
          "properties": [],
          "pk": 1400506
        }
      ]
    },
    {
      "relationship-type": "citation",
      "object": {
        "identifiers": [
          {
            "uri": "https://doi.org/10.1111/j.1469-7998.1984.tb02331.x",
            "tokenized": {
              "prefix": "doi",
              "suffix": "10.1111/j.1469-7998.1984.tb02331.x"
            }
          }
        ],
        "relationships": [],
        "properties": [
          {
            "values": {
              "doi": "10.1111/j.1469-7998.1984.tb02331.x",
              "key": "10.1002/zoo.10027-BIB08",
              "isbn": null,
              "issn": null,
              "year": "1984",
              "issue": null,
              "author": "Hodges",
              "volume": "203",
              "edition": null,
              "component": null,
              "isbn-type": "print",
              "issn-type": "print",
              "first-page": "253",
              "series-title": null,
              "unstructured": null,
              "volume-title": null,
              "article-title": null,
              "journal-title": "J Zool Lond",
              "standards-body": null,
              "doi-asserted-by": "crossref",
              "standard-designator": null
            },
            "asserted-by": [
              {
                "identifiers": [
                  {
                    "uri": "https://id.crossref.org/member/311",
                    "tokenized": {
                      "prefix": "member",
                      "suffix": "311"
                    }
                  },
                  {
                    "uri": "http://id.crossref.org/item/1400506",
                    "tokenized": {
                      "prefix": "item",
                      "suffix": "1400506"
                    }
                  }
                ],
                "relationships": [],
                "properties": [],
                "pk": 1400506
              }
            ]
          }
        ],
        "pk": 165184
      },
      "asserted-by": [
        {
          "identifiers": [
            {
              "uri": "https://id.crossref.org/member/311",
              "tokenized": {
                "prefix": "member",
                "suffix": "311"
              }
            },
            {
              "uri": "http://id.crossref.org/item/1400506",
              "tokenized": {
                "prefix": "item",
                "suffix": "1400506"
              }
            }
          ],
          "relationships": [],
          "properties": [],
          "pk": 1400506
        }
      ]
    },
    {
      "relationship-type": "citation",
      "object": {
        "identifiers": [
          {
            "uri": "https://id.crossref.org/blank/39530af68bfa07ec31ef4e894f8a95726615951b",
            "tokenized": {
              "prefix": "cr-blank",
              "suffix": "39530af68bfa07ec31ef4e894f8a95726615951b"
            }
          }
        ],
        "relationships": [],
        "properties": [
          {
            "values": {
              "doi": null,
              "key": "10.1002/zoo.10027-BIB14",
              "isbn": null,
              "issn": null,
              "year": "1997",
              "issue": null,
              "author": "Meyer",
              "volume": "110",
              "edition": null,
              "component": null,
              "isbn-type": "print",
              "issn-type": "print",
              "first-page": "143",
              "series-title": null,
              "unstructured": null,
              "volume-title": null,
              "article-title": null,
              "journal-title": "Berl M\u00fcnch Tier\u00e4rztl Wschr",
              "standards-body": null,
              "doi-asserted-by": "publisher",
              "standard-designator": null
            },
            "asserted-by": [
              {
                "identifiers": [
                  {
                    "uri": "https://id.crossref.org/member/311",
                    "tokenized": {
                      "prefix": "member",
                      "suffix": "311"
                    }
                  },
                  {
                    "uri": "http://id.crossref.org/item/1400506",
                    "tokenized": {
                      "prefix": "item",
                      "suffix": "1400506"
                    }
                  }
                ],
                "relationships": [],
                "properties": [],
                "pk": 1400506
              }
            ]
          }
        ],
        "pk": 165185
      },
      "asserted-by": [
        {
          "identifiers": [
            {
              "uri": "https://id.crossref.org/member/311",
              "tokenized": {
                "prefix": "member",
                "suffix": "311"
              }
            },
            {
              "uri": "http://id.crossref.org/item/1400506",
              "tokenized": {
                "prefix": "item",
                "suffix": "1400506"
              }
            }
          ],
          "relationships": [],
          "properties": [],
          "pk": 1400506
        }
      ]
    },
    {
      "relationship-type": "citation",
      "object": {
        "identifiers": [
          {
            "uri": "https://id.crossref.org/blank/9fbb5c59170e5c2192a244beefea72e6c62db434",
            "tokenized": {
              "prefix": "cr-blank",
              "suffix": "9fbb5c59170e5c2192a244beefea72e6c62db434"
            }
          }
        ],
        "relationships": [],
        "properties": [
          {
            "values": {
              "doi": null,
              "key": "10.1002/zoo.10027-BIB12",
              "isbn": null,
              "issn": null,
              "year": "1990",
              "issue": null,
              "author": "Liu",
              "volume": null,
              "edition": null,
              "component": null,
              "isbn-type": "print",
              "issn-type": "print",
              "first-page": "17",
              "series-title": null,
              "unstructured": "1990. An observation on the sexual cycle of female giant pandas. In: editors. Proceedings, Second International Symposium on the Giant Panda. Tokyo: Tokyo Zoological Park Society. p 17-21.",
              "volume-title": "Proceedings, Second International Symposium on the Giant Panda",
              "article-title": null,
              "journal-title": null,
              "standards-body": null,
              "doi-asserted-by": "publisher",
              "standard-designator": null
            },
            "asserted-by": [
              {
                "identifiers": [
                  {
                    "uri": "https://id.crossref.org/member/311",
                    "tokenized": {
                      "prefix": "member",
                      "suffix": "311"
                    }
                  },
                  {
                    "uri": "http://id.crossref.org/item/1400506",
                    "tokenized": {
                      "prefix": "item",
                      "suffix": "1400506"
                    }
                  }
                ],
                "relationships": [],
                "properties": [],
                "pk": 1400506
              }
            ]
          }
        ],
        "pk": 653036
      },
      "asserted-by": [
        {
          "identifiers": [
            {
              "uri": "https://id.crossref.org/member/311",
              "tokenized": {
                "prefix": "member",
                "suffix": "311"
              }
            },
            {
              "uri": "http://id.crossref.org/item/1400506",
              "tokenized": {
                "prefix": "item",
                "suffix": "1400506"
              }
            }
          ],
          "relationships": [],
          "properties": [],
          "pk": 1400506
        }
      ]
    },
    {
      "relationship-type": "citation",
      "object": {
        "identifiers": [
          {
            "uri": "https://doi.org/10.1006/gcen.1996.0067",
            "tokenized": {
              "prefix": "doi",
              "suffix": "10.1006/gcen.1996.0067"
            }
          }
        ],
        "relationships": [
          {
            "relationship-type": "steward",
            "object": {
              "identifiers": [
                {
                  "uri": "https://id.crossref.org/member/78",
                  "tokenized": {
                    "prefix": "member",
                    "suffix": "78"
                  }
                }
              ],
              "relationships": [
                {
                  "relationship-type": "member-of",
                  "object": {
                    "identifiers": [
                      {
                        "uri": "https://ror.org/02twcfp32",
                        "tokenized": {
                          "prefix": "ror",
                          "suffix": "02twcfp32"
                        }
                      }
                    ],
                    "relationships": [],
                    "properties": [],
                    "pk": 1358648
                  },
                  "asserted-by": [
                    {
                      "identifiers": [
                        {
                          "uri": "https://ror.org/02twcfp32",
                          "tokenized": {
                            "prefix": "ror",
                            "suffix": "02twcfp32"
                          }
                        },
                        {
                          "uri": "http://id.crossref.org/item/1358648",
                          "tokenized": {
                            "prefix": "item",
                            "suffix": "1358648"
                          }
                        }
                      ],
                      "relationships": [],
                      "properties": [],
                      "pk": 1358648
                    }
                  ]
                }
              ],
              "properties": [],
              "pk": 644005
            },
            "asserted-by": [
              {
                "identifiers": [
                  {
                    "uri": "https://ror.org/02twcfp32",
                    "tokenized": {
                      "prefix": "ror",
                      "suffix": "02twcfp32"
                    }
                  },
                  {
                    "uri": "http://id.crossref.org/item/1358648",
                    "tokenized": {
                      "prefix": "item",
                      "suffix": "1358648"
                    }
                  }
                ],
                "relationships": [],
                "properties": [],
                "pk": 1358648
              }
            ]
          },
          {
            "relationship-type": "registration-agency",
            "object": {
              "identifiers": [
                {
                  "uri": "https://ror.org/02twcfp32",
                  "tokenized": {
                    "prefix": "ror",
                    "suffix": "02twcfp32"
                  }
                }
              ],
              "relationships": [],
              "properties": [],
              "pk": 1358648
            },
            "asserted-by": [
              {
                "identifiers": [
                  {
                    "uri": "https://ror.org/02twcfp32",
                    "tokenized": {
                      "prefix": "ror",
                      "suffix": "02twcfp32"
                    }
                  },
                  {
                    "uri": "http://id.crossref.org/item/1358648",
                    "tokenized": {
                      "prefix": "item",
                      "suffix": "1358648"
                    }
                  }
                ],
                "relationships": [],
                "properties": [],
                "pk": 1358648
              }
            ]
          }
        ],
        "properties": [
          {
            "values": {
              "doi": "10.1006/gcen.1996.0067",
              "key": "10.1002/zoo.1022-BIB37|cit37",
              "isbn": null,
              "issn": null,
              "year": "1996",
              "issue": null,
              "author": "Wasser",
              "volume": "102",
              "edition": null,
              "component": null,
              "isbn-type": "print",
              "issn-type": "print",
              "first-page": "255",
              "series-title": null,
              "unstructured": null,
              "volume-title": null,
              "article-title": "Excretory fate of estradiol and progesterone in the African elephant (Loxodonta africana) and patterns of fecal steroid concentrations throughout the estrous cycle",
              "journal-title": "Gen Comp Endocrinol",
              "standards-body": null,
              "doi-asserted-by": "crossref",
              "standard-designator": null
            },
            "asserted-by": [
              {
                "identifiers": [
                  {
                    "uri": "https://id.crossref.org/member/311",
                    "tokenized": {
                      "prefix": "member",
                      "suffix": "311"
                    }
                  },
                  {
                    "uri": "http://id.crossref.org/item/1400506",
                    "tokenized": {
                      "prefix": "item",
                      "suffix": "1400506"
                    }
                  }
                ],
                "relationships": [],
                "properties": [],
                "pk": 1400506
              }
            ]
          }
        ],
        "pk": 1438000
      },
      "asserted-by": [
        {
          "identifiers": [
            {
              "uri": "https://id.crossref.org/member/311",
              "tokenized": {
                "prefix": "member",
                "suffix": "311"
              }
            },
            {
              "uri": "http://id.crossref.org/item/1400506",
              "tokenized": {
                "prefix": "item",
                "suffix": "1400506"
              }
            }
          ],
          "relationships": [],
          "properties": [],
          "pk": 1400506
        }
      ]
    },
    {
      "relationship-type": "citation",
      "object": {
        "identifiers": [
          {
            "uri": "https://doi.org/10.1163/156853974x00534",
            "tokenized": {
              "prefix": "doi",
              "suffix": "10.1163/156853974x00534"
            }
          }
        ],
        "relationships": [],
        "properties": [
          {
            "values": {
              "doi": "10.1163/156853974X00534",
              "key": "10.1002/(SICI)1098-2345(1998)45:3<263::AID-AJP3>3.0.CO;2-U-BIB1",
              "isbn": null,
              "issn": null,
              "year": "1974",
              "issue": null,
              "author": "Altmann",
              "volume": "49",
              "edition": null,
              "component": null,
              "isbn-type": "print",
              "issn-type": "print",
              "first-page": "227",
              "series-title": null,
              "unstructured": null,
              "volume-title": null,
              "article-title": null,
              "journal-title": "Behavior",
              "standards-body": null,
              "doi-asserted-by": "crossref",
              "standard-designator": null
            },
            "asserted-by": [
              {
                "identifiers": [
                  {
                    "uri": "https://id.crossref.org/member/311",
                    "tokenized": {
                      "prefix": "member",
                      "suffix": "311"
                    }
                  },
                  {
                    "uri": "http://id.crossref.org/item/1400506",
                    "tokenized": {
                      "prefix": "item",
                      "suffix": "1400506"
                    }
                  }
                ],
                "relationships": [],
                "properties": [],
                "pk": 1400506
              }
            ]
          }
        ],
        "pk": 1450809
      },
      "asserted-by": [
        {
          "identifiers": [
            {
              "uri": "https://id.crossref.org/member/311",
              "tokenized": {
                "prefix": "member",
                "suffix": "311"
              }
            },
            {
              "uri": "http://id.crossref.org/item/1400506",
              "tokenized": {
                "prefix": "item",
                "suffix": "1400506"
              }
            }
          ],
          "relationships": [],
          "properties": [],
          "pk": 1400506
        }
      ]
    },
    {
      "relationship-type": "citation",
      "object": {
        "identifiers": [
          {
            "uri": "https://doi.org/10.1530/jrf.0.0840023",
            "tokenized": {
              "prefix": "doi",
              "suffix": "10.1530/jrf.0.0840023"
            }
          }
        ],
        "relationships": [],
        "properties": [
          {
            "values": {
              "doi": "10.1530/jrf.0.0840023",
              "key": "10.1002/zoo.10027-BIB03",
              "isbn": null,
              "issn": null,
              "year": "1988",
              "issue": null,
              "author": "Choudhury",
              "volume": "84",
              "edition": null,
              "component": null,
              "isbn-type": "print",
              "issn-type": "print",
              "first-page": "23",
              "series-title": null,
              "unstructured": null,
              "volume-title": null,
              "article-title": null,
              "journal-title": "J Reprod Fertil",
              "standards-body": null,
              "doi-asserted-by": "crossref",
              "standard-designator": null
            },
            "asserted-by": [
              {
                "identifiers": [
                  {
                    "uri": "https://id.crossref.org/member/311",
                    "tokenized": {
                      "prefix": "member",
                      "suffix": "311"
                    }
                  },
                  {
                    "uri": "http://id.crossref.org/item/1400506",
                    "tokenized": {
                      "prefix": "item",
                      "suffix": "1400506"
                    }
                  }
                ],
                "relationships": [],
                "properties": [],
                "pk": 1400506
              }
            ]
          }
        ],
        "pk": 1676543
      },
      "asserted-by": [
        {
          "identifiers": [
            {
              "uri": "https://id.crossref.org/member/311",
              "tokenized": {
                "prefix": "member",
                "suffix": "311"
              }
            },
            {
              "uri": "http://id.crossref.org/item/1400506",
              "tokenized": {
                "prefix": "item",
                "suffix": "1400506"
              }
            }
          ],
          "relationships": [],
          "properties": [],
          "pk": 1400506
        }
      ]
    },
    {
      "relationship-type": "citation",
      "object": {
        "identifiers": [
          {
            "uri": "https://doi.org/10.1002/zoo.1430110203",
            "tokenized": {
              "prefix": "doi",
              "suffix": "10.1002/zoo.1430110203"
            }
          }
        ],
        "relationships": [],
        "properties": [
          {
            "values": {
              "doi": "10.1002/zoo.1430110203",
              "key": "10.1002/1098-2361(2000)19:5<347::AID-ZOO6>3.0.CO;2-V-BIB16",
              "isbn": null,
              "issn": null,
              "year": "1992",
              "issue": null,
              "author": "Czekala",
              "volume": "11",
              "edition": null,
              "component": null,
              "isbn-type": "print",
              "issn-type": "print",
              "first-page": "75",
              "series-title": null,
              "unstructured": null,
              "volume-title": null,
              "article-title": null,
              "journal-title": "Zoo Biol",
              "standards-body": null,
              "doi-asserted-by": "crossref",
              "standard-designator": null
            },
            "asserted-by": [
              {
                "identifiers": [
                  {
                    "uri": "https://id.crossref.org/member/311",
                    "tokenized": {
                      "prefix": "member",
                      "suffix": "311"
                    }
                  },
                  {
                    "uri": "http://id.crossref.org/item/1400506",
                    "tokenized": {
                      "prefix": "item",
                      "suffix": "1400506"
                    }
                  }
                ],
                "relationships": [],
                "properties": [],
                "pk": 1400506
              }
            ]
          }
        ],
        "pk": 1676544
      },
      "asserted-by": [
        {
          "identifiers": [
            {
              "uri": "https://id.crossref.org/member/311",
              "tokenized": {
                "prefix": "member",
                "suffix": "311"
              }
            },
            {
              "uri": "http://id.crossref.org/item/1400506",
              "tokenized": {
                "prefix": "item",
                "suffix": "1400506"
              }
            }
          ],
          "relationships": [],
          "properties": [],
          "pk": 1400506
        }
      ]
    },
    {
      "relationship-type": "citation",
      "object": {
        "identifiers": [
          {
            "uri": "https://id.crossref.org/blank/232148bd446aa6b4fe78a9bad2065914c8d5c0c6",
            "tokenized": {
              "prefix": "cr-blank",
              "suffix": "232148bd446aa6b4fe78a9bad2065914c8d5c0c6"
            }
          }
        ],
        "relationships": [],
        "properties": [
          {
            "values": {
              "doi": null,
              "key": "10.1002/zoo.10027-BIB06",
              "isbn": null,
              "issn": null,
              "year": null,
              "issue": null,
              "author": "Czekala",
              "volume": null,
              "edition": null,
              "component": null,
              "isbn-type": "print",
              "issn-type": "print",
              "first-page": null,
              "series-title": null,
              "unstructured": "Endocrine monitoring and its application to the management of the giant panda. In: editors. Giant pandas: conservation priorities for the twenty-first century. Berkeley: University of California Press (in press) .",
              "volume-title": "Giant pandas: conservation priorities for the twenty-first century",
              "article-title": null,
              "journal-title": null,
              "standards-body": null,
              "doi-asserted-by": "publisher",
              "standard-designator": null
            },
            "asserted-by": [
              {
                "identifiers": [
                  {
                    "uri": "https://id.crossref.org/member/311",
                    "tokenized": {
                      "prefix": "member",
                      "suffix": "311"
                    }
                  },
                  {
                    "uri": "http://id.crossref.org/item/1400506",
                    "tokenized": {
                      "prefix": "item",
                      "suffix": "1400506"
                    }
                  }
                ],
                "relationships": [],
                "properties": [],
                "pk": 1400506
              }
            ]
          }
        ],
        "pk": 1676545
      },
      "asserted-by": [
        {
          "identifiers": [
            {
              "uri": "https://id.crossref.org/member/311",
              "tokenized": {
                "prefix": "member",
                "suffix": "311"
              }
            },
            {
              "uri": "http://id.crossref.org/item/1400506",
              "tokenized": {
                "prefix": "item",
                "suffix": "1400506"
              }
            }
          ],
          "relationships": [],
          "properties": [],
          "pk": 1400506
        }
      ]
    },
    {
      "relationship-type": "citation",
      "object": {
        "identifiers": [
          {
            "uri": "https://doi.org/10.1111/j.1748-1090.1979.tb00568.x",
            "tokenized": {
              "prefix": "doi",
              "suffix": "10.1111/j.1748-1090.1979.tb00568.x"
            }
          }
        ],
        "relationships": [],
        "properties": [
          {
            "values": {
              "doi": "10.1111/j.1748-1090.1979.tb00568.x",
              "key": "10.1002/zoo.10027-BIB11",
              "isbn": null,
              "issn": null,
              "year": "1979",
              "issue": null,
              "author": "Kleiman",
              "volume": "19",
              "edition": null,
              "component": null,
              "isbn-type": "print",
              "issn-type": "print",
              "first-page": "217",
              "series-title": null,
              "unstructured": null,
              "volume-title": null,
              "article-title": null,
              "journal-title": "Int Zoo Yrbk",
              "standards-body": null,
              "doi-asserted-by": "crossref",
              "standard-designator": null
            },
            "asserted-by": [
              {
                "identifiers": [
                  {
                    "uri": "https://id.crossref.org/member/311",
                    "tokenized": {
                      "prefix": "member",
                      "suffix": "311"
                    }
                  },
                  {
                    "uri": "http://id.crossref.org/item/1400506",
                    "tokenized": {
                      "prefix": "item",
                      "suffix": "1400506"
                    }
                  }
                ],
                "relationships": [],
                "properties": [],
                "pk": 1400506
              }
            ]
          }
        ],
        "pk": 1676546
      },
      "asserted-by": [
        {
          "identifiers": [
            {
              "uri": "https://id.crossref.org/member/311",
              "tokenized": {
                "prefix": "member",
                "suffix": "311"
              }
            },
            {
              "uri": "http://id.crossref.org/item/1400506",
              "tokenized": {
                "prefix": "item",
                "suffix": "1400506"
              }
            }
          ],
          "relationships": [],
          "properties": [],
          "pk": 1400506
        }
      ]
    },
    {
      "relationship-type": "citation",
      "object": {
        "identifiers": [
          {
            "uri": "https://doi.org/10.1002/zoo.1430080104",
            "tokenized": {
              "prefix": "doi",
              "suffix": "10.1002/zoo.1430080104"
            }
          }
        ],
        "relationships": [],
        "properties": [
          {
            "values": {
              "doi": "10.1002/zoo.1430080104",
              "key": "10.1002/zoo.10027-BIB13",
              "isbn": null,
              "issn": null,
              "year": "1989",
              "issue": null,
              "author": "Masui",
              "volume": "8",
              "edition": null,
              "component": null,
              "isbn-type": "print",
              "issn-type": "print",
              "first-page": "17",
              "series-title": null,
              "unstructured": null,
              "volume-title": null,
              "article-title": null,
              "journal-title": "Zoo Biol",
              "standards-body": null,
              "doi-asserted-by": "crossref",
              "standard-designator": null
            },
            "asserted-by": [
              {
                "identifiers": [
                  {
                    "uri": "https://id.crossref.org/member/311",
                    "tokenized": {
                      "prefix": "member",
                      "suffix": "311"
                    }
                  },
                  {
                    "uri": "http://id.crossref.org/item/1400506",
                    "tokenized": {
                      "prefix": "item",
                      "suffix": "1400506"
                    }
                  }
                ],
                "relationships": [],
                "properties": [],
                "pk": 1400506
              }
            ]
          }
        ],
        "pk": 1676547
      },
      "asserted-by": [
        {
          "identifiers": [
            {
              "uri": "https://id.crossref.org/member/311",
              "tokenized": {
                "prefix": "member",
                "suffix": "311"
              }
            },
            {
              "uri": "http://id.crossref.org/item/1400506",
              "tokenized": {
                "prefix": "item",
                "suffix": "1400506"
              }
            }
          ],
          "relationships": [],
          "properties": [],
          "pk": 1400506
        }
      ]
    },
    {
      "relationship-type": "citation",
      "object": {
        "identifiers": [
          {
            "uri": "https://doi.org/10.1530/jrf.0.0640209",
            "tokenized": {
              "prefix": "doi",
              "suffix": "10.1530/jrf.0.0640209"
            }
          }
        ],
        "relationships": [],
        "properties": [
          {
            "values": {
              "doi": "10.1530/jrf.0.0640209",
              "key": "10.1002/zoo.10027-BIB02",
              "isbn": null,
              "issn": null,
              "year": "1982",
              "issue": null,
              "author": "Bonney",
              "volume": "64",
              "edition": null,
              "component": null,
              "isbn-type": "print",
              "issn-type": "print",
              "first-page": "209",
              "series-title": null,
              "unstructured": null,
              "volume-title": null,
              "article-title": null,
              "journal-title": "J Reprod Fertil",
              "standards-body": null,
              "doi-asserted-by": "crossref",
              "standard-designator": null
            },
            "asserted-by": [
              {
                "identifiers": [
                  {
                    "uri": "https://id.crossref.org/member/311",
                    "tokenized": {
                      "prefix": "member",
                      "suffix": "311"
                    }
                  },
                  {
                    "uri": "http://id.crossref.org/item/1400506",
                    "tokenized": {
                      "prefix": "item",
                      "suffix": "1400506"
                    }
                  }
                ],
                "relationships": [],
                "properties": [],
                "pk": 1400506
              }
            ]
          }
        ],
        "pk": 1731639
      },
      "asserted-by": [
        {
          "identifiers": [
            {
              "uri": "https://id.crossref.org/member/311",
              "tokenized": {
                "prefix": "member",
                "suffix": "311"
              }
            },
            {
              "uri": "http://id.crossref.org/item/1400506",
              "tokenized": {
                "prefix": "item",
                "suffix": "1400506"
              }
            }
          ],
          "relationships": [],
          "properties": [],
          "pk": 1400506
        }
      ]
    },
    {
      "relationship-type": "citation",
      "object": {
        "identifiers": [
          {
            "uri": "https://doi.org/10.1111/j.1439-0310.1983.tb02139.x",
            "tokenized": {
              "prefix": "doi",
              "suffix": "10.1111/j.1439-0310.1983.tb02139.x"
            }
          }
        ],
        "relationships": [],
        "properties": [
          {
            "values": {
              "doi": "10.1111/j.1439-0310.1983.tb02139.x",
              "key": "10.1002/zoo.10027-BIB09",
              "isbn": null,
              "issn": null,
              "year": "1983",
              "issue": null,
              "author": "Kleiman",
              "volume": "62",
              "edition": null,
              "component": null,
              "isbn-type": "print",
              "issn-type": "print",
              "first-page": "1",
              "series-title": null,
              "unstructured": null,
              "volume-title": null,
              "article-title": null,
              "journal-title": "Z Tierpsychol",
              "standards-body": null,
              "doi-asserted-by": "crossref",
              "standard-designator": null
            },
            "asserted-by": [
              {
                "identifiers": [
                  {
                    "uri": "https://id.crossref.org/member/311",
                    "tokenized": {
                      "prefix": "member",
                      "suffix": "311"
                    }
                  },
                  {
                    "uri": "http://id.crossref.org/item/1400506",
                    "tokenized": {
                      "prefix": "item",
                      "suffix": "1400506"
                    }
                  }
                ],
                "relationships": [],
                "properties": [],
                "pk": 1400506
              }
            ]
          }
        ],
        "pk": 1779120
      },
      "asserted-by": [
        {
          "identifiers": [
            {
              "uri": "https://id.crossref.org/member/311",
              "tokenized": {
                "prefix": "member",
                "suffix": "311"
              }
            },
            {
              "uri": "http://id.crossref.org/item/1400506",
              "tokenized": {
                "prefix": "item",
                "suffix": "1400506"
              }
            }
          ],
          "relationships": [],
          "properties": [],
          "pk": 1400506
        }
      ]
    },
    {
      "relationship-type": "citation",
      "object": {
        "identifiers": [
          {
            "uri": "https://doi.org/10.1530/jrf.0.0850203",
            "tokenized": {
              "prefix": "doi",
              "suffix": "10.1530/jrf.0.0850203"
            }
          }
        ],
        "relationships": [],
        "properties": [
          {
            "values": {
              "doi": "10.1530/jrf.0.0850203",
              "key": "10.1002/zoo.10027-BIB15",
              "isbn": null,
              "issn": null,
              "year": "1989",
              "issue": null,
              "author": "Monfort",
              "volume": "85",
              "edition": null,
              "component": null,
              "isbn-type": "print",
              "issn-type": "print",
              "first-page": "203",
              "series-title": null,
              "unstructured": null,
              "volume-title": null,
              "article-title": null,
              "journal-title": "J Reprod Fertil",
              "standards-body": null,
              "doi-asserted-by": "crossref",
              "standard-designator": null
            },
            "asserted-by": [
              {
                "identifiers": [
                  {
                    "uri": "https://id.crossref.org/member/311",
                    "tokenized": {
                      "prefix": "member",
                      "suffix": "311"
                    }
                  },
                  {
                    "uri": "http://id.crossref.org/item/1400506",
                    "tokenized": {
                      "prefix": "item",
                      "suffix": "1400506"
                    }
                  }
                ],
                "relationships": [],
                "properties": [],
                "pk": 1400506
              }
            ]
          }
        ],
        "pk": 1808405
      },
      "asserted-by": [
        {
          "identifiers": [
            {
              "uri": "https://id.crossref.org/member/311",
              "tokenized": {
                "prefix": "member",
                "suffix": "311"
              }
            },
            {
              "uri": "http://id.crossref.org/item/1400506",
              "tokenized": {
                "prefix": "item",
                "suffix": "1400506"
              }
            }
          ],
          "relationships": [],
          "properties": [],
          "pk": 1400506
        }
      ]
    },
    {
      "relationship-type": "citation",
      "object": {
        "identifiers": [
          {
            "uri": "https://id.crossref.org/blank/a2009e0858db43ab83cb13b4b12105758aef83e0",
            "tokenized": {
              "prefix": "cr-blank",
              "suffix": "a2009e0858db43ab83cb13b4b12105758aef83e0"
            }
          }
        ],
        "relationships": [],
        "properties": [
          {
            "values": {
              "doi": null,
              "key": "10.1002/zoo.10027-BIB17",
              "isbn": null,
              "issn": null,
              "year": "1985",
              "issue": null,
              "author": "Schaller",
              "volume": null,
              "edition": null,
              "component": null,
              "isbn-type": "print",
              "issn-type": "print",
              "first-page": null,
              "series-title": null,
              "unstructured": "1985. The giant pandas of Wolong. Chicago: University of Chicago Press.",
              "volume-title": "The giant pandas of Wolong",
              "article-title": null,
              "journal-title": null,
              "standards-body": null,
              "doi-asserted-by": "publisher",
              "standard-designator": null
            },
            "asserted-by": [
              {
                "identifiers": [
                  {
                    "uri": "https://id.crossref.org/member/311",
                    "tokenized": {
                      "prefix": "member",
                      "suffix": "311"
                    }
                  },
                  {
                    "uri": "http://id.crossref.org/item/1400506",
                    "tokenized": {
                      "prefix": "item",
                      "suffix": "1400506"
                    }
                  }
                ],
                "relationships": [],
                "properties": [],
                "pk": 1400506
              }
            ]
          }
        ],
        "pk": 1808406
      },
      "asserted-by": [
        {
          "identifiers": [
            {
              "uri": "https://id.crossref.org/member/311",
              "tokenized": {
                "prefix": "member",
                "suffix": "311"
              }
            },
            {
              "uri": "http://id.crossref.org/item/1400506",
              "tokenized": {
                "prefix": "item",
                "suffix": "1400506"
              }
            }
          ],
          "relationships": [],
          "properties": [],
          "pk": 1400506
        }
      ]
    },
    {
      "relationship-type": "author",
      "object": {
        "identifiers": [
          {
            "uri": "https://id.crossref.org/blank/8301c4917b91f25b509d972370a290a136a7ea54",
            "tokenized": {
              "prefix": "cr-blank",
              "suffix": "8301c4917b91f25b509d972370a290a136a7ea54"
            }
          }
        ],
        "relationships": [],
        "properties": [
          {
            "values": {
              "type": "person",
              "suffix": null,
              "sequence": "additional",
              "last-name": "Swaisgood",
              "first-name": "R.R."
            },
            "asserted-by": [
              {
                "identifiers": [
                  {
                    "uri": "https://id.crossref.org/member/311",
                    "tokenized": {
                      "prefix": "member",
                      "suffix": "311"
                    }
                  },
                  {
                    "uri": "http://id.crossref.org/item/1400506",
                    "tokenized": {
                      "prefix": "item",
                      "suffix": "1400506"
                    }
                  }
                ],
                "relationships": [],
                "properties": [],
                "pk": 1400506
              }
            ]
          }
        ],
        "pk": 48315
      },
      "asserted-by": [
        {
          "identifiers": [
            {
              "uri": "https://id.crossref.org/member/311",
              "tokenized": {
                "prefix": "member",
                "suffix": "311"
              }
            },
            {
              "uri": "http://id.crossref.org/item/1400506",
              "tokenized": {
                "prefix": "item",
                "suffix": "1400506"
              }
            }
          ],
          "relationships": [],
          "properties": [],
          "pk": 1400506
        }
      ]
    },
    {
      "relationship-type": "author",
      "object": {
        "identifiers": [
          {
            "uri": "https://id.crossref.org/blank/04b7da16b495bdbb54a9db4ed55b1938c7ae853f",
            "tokenized": {
              "prefix": "cr-blank",
              "suffix": "04b7da16b495bdbb54a9db4ed55b1938c7ae853f"
            }
          }
        ],
        "relationships": [],
        "properties": [
          {
            "values": {
              "type": "person",
              "suffix": null,
              "sequence": "additional",
              "last-name": "Czekala",
              "first-name": "N.M."
            },
            "asserted-by": [
              {
                "identifiers": [
                  {
                    "uri": "https://id.crossref.org/member/311",
                    "tokenized": {
                      "prefix": "member",
                      "suffix": "311"
                    }
                  },
                  {
                    "uri": "http://id.crossref.org/item/1400506",
                    "tokenized": {
                      "prefix": "item",
                      "suffix": "1400506"
                    }
                  }
                ],
                "relationships": [],
                "properties": [],
                "pk": 1400506
              }
            ]
          }
        ],
        "pk": 1731637
      },
      "asserted-by": [
        {
          "identifiers": [
            {
              "uri": "https://id.crossref.org/member/311",
              "tokenized": {
                "prefix": "member",
                "suffix": "311"
              }
            },
            {
              "uri": "http://id.crossref.org/item/1400506",
              "tokenized": {
                "prefix": "item",
                "suffix": "1400506"
              }
            }
          ],
          "relationships": [],
          "properties": [],
          "pk": 1400506
        }
      ]
    },
    {
      "relationship-type": "author",
      "object": {
        "identifiers": [
          {
            "uri": "https://id.crossref.org/blank/7ce966ad58dab4f60bb3d988a86435b8962faba7",
            "tokenized": {
              "prefix": "cr-blank",
              "suffix": "7ce966ad58dab4f60bb3d988a86435b8962faba7"
            }
          }
        ],
        "relationships": [],
        "properties": [
          {
            "values": {
              "type": "person",
              "suffix": null,
              "sequence": "first",
              "last-name": "Lindburg",
              "first-name": "D.G."
            },
            "asserted-by": [
              {
                "identifiers": [
                  {
                    "uri": "https://id.crossref.org/member/311",
                    "tokenized": {
                      "prefix": "member",
                      "suffix": "311"
                    }
                  },
                  {
                    "uri": "http://id.crossref.org/item/1400506",
                    "tokenized": {
                      "prefix": "item",
                      "suffix": "1400506"
                    }
                  }
                ],
                "relationships": [],
                "properties": [],
                "pk": 1400506
              }
            ]
          }
        ],
        "pk": 1779119
      },
      "asserted-by": [
        {
          "identifiers": [
            {
              "uri": "https://id.crossref.org/member/311",
              "tokenized": {
                "prefix": "member",
                "suffix": "311"
              }
            },
            {
              "uri": "http://id.crossref.org/item/1400506",
              "tokenized": {
                "prefix": "item",
                "suffix": "1400506"
              }
            }
          ],
          "relationships": [],
          "properties": [],
          "pk": 1400506
        }
      ]
    },
    {
      "relationship-type": "resource-fulltext",
      "object": {
        "identifiers": [
          {
            "uri": "https://id.crossref.org/blank/0805bdd2fb04f7654d27de787d35801b29bd34e2",
            "tokenized": {
              "prefix": "cr-blank",
              "suffix": "0805bdd2fb04f7654d27de787d35801b29bd34e2"
            }
          }
        ],
        "relationships": [],
        "properties": [
          {
            "values": {
              "type": "url",
              "value": "https://onlinelibrary.wiley.com/doi/full/10.1002/zoo.10027",
              "content-type": "unspecified",
              "content-version": "vor",
              "intended-application": "similarity-checking"
            },
            "asserted-by": [
              {
                "identifiers": [
                  {
                    "uri": "https://id.crossref.org/member/311",
                    "tokenized": {
                      "prefix": "member",
                      "suffix": "311"
                    }
                  },
                  {
                    "uri": "http://id.crossref.org/item/1400506",
                    "tokenized": {
                      "prefix": "item",
                      "suffix": "1400506"
                    }
                  }
                ],
                "relationships": [],
                "properties": [],
                "pk": 1400506
              }
            ]
          }
        ],
        "pk": 165181
      },
      "asserted-by": [
        {
          "identifiers": [
            {
              "uri": "https://id.crossref.org/member/311",
              "tokenized": {
                "prefix": "member",
                "suffix": "311"
              }
            },
            {
              "uri": "http://id.crossref.org/item/1400506",
              "tokenized": {
                "prefix": "item",
                "suffix": "1400506"
              }
            }
          ],
          "relationships": [],
          "properties": [],
          "pk": 1400506
        }
      ]
    },
    {
      "relationship-type": "resource-fulltext",
      "object": {
        "identifiers": [
          {
            "uri": "https://id.crossref.org/blank/dab80c38bf2c97cef6e18dba0ec995a12dfb8bdf",
            "tokenized": {
              "prefix": "cr-blank",
              "suffix": "dab80c38bf2c97cef6e18dba0ec995a12dfb8bdf"
            }
          }
        ],
        "relationships": [],
        "properties": [
          {
            "values": {
              "type": "url",
              "value": "https://api.wiley.com/onlinelibrary/tdm/v1/articles/10.1002%2Fzoo.10027",
              "content-type": "unspecified",
              "content-version": "vor",
              "intended-application": "text-mining"
            },
            "asserted-by": [
              {
                "identifiers": [
                  {
                    "uri": "https://id.crossref.org/member/311",
                    "tokenized": {
                      "prefix": "member",
                      "suffix": "311"
                    }
                  },
                  {
                    "uri": "http://id.crossref.org/item/1400506",
                    "tokenized": {
                      "prefix": "item",
                      "suffix": "1400506"
                    }
                  }
                ],
                "relationships": [],
                "properties": [],
                "pk": 1400506
              }
            ]
          }
        ],
        "pk": 1676542
      },
      "asserted-by": [
        {
          "identifiers": [
            {
              "uri": "https://id.crossref.org/member/311",
              "tokenized": {
                "prefix": "member",
                "suffix": "311"
              }
            },
            {
              "uri": "http://id.crossref.org/item/1400506",
              "tokenized": {
                "prefix": "item",
                "suffix": "1400506"
              }
            }
          ],
          "relationships": [],
          "properties": [],
          "pk": 1400506
        }
      ]
    },
    {
      "relationship-type": "resource-resolution",
      "object": {
        "identifiers": [
          {
            "uri": "https://id.crossref.org/blank/c558494d6dd3936fc63551c14a9cdaadf00225f0",
            "tokenized": {
              "prefix": "cr-blank",
              "suffix": "c558494d6dd3936fc63551c14a9cdaadf00225f0"
            }
          }
        ],
        "relationships": [
          {
            "relationship-type": "web-resource",
            "object": {
              "identifiers": [
                {
                  "uri": "https://onlinelibrary.wiley.com/doi/10.1002/zoo.10027",
                  "tokenized": {
                    "prefix": "non-persistent",
                    "suffix": "https://onlinelibrary.wiley.com/doi/10.1002/zoo.10027"
                  }
                }
              ],
              "relationships": [],
              "properties": [
                {
                  "values": {
                    "type": "web-resource"
                  },
                  "asserted-by": [
                    {
                      "identifiers": [
                        {
                          "uri": "https://id.crossref.org/member/311",
                          "tokenized": {
                            "prefix": "member",
                            "suffix": "311"
                          }
                        },
                        {
                          "uri": "http://id.crossref.org/item/1400506",
                          "tokenized": {
                            "prefix": "item",
                            "suffix": "1400506"
                          }
                        }
                      ],
                      "relationships": [],
                      "properties": [],
                      "pk": 1400506
                    }
                  ]
                }
              ],
              "pk": 1782939
            },
            "asserted-by": [
              {
                "identifiers": [
                  {
                    "uri": "https://id.crossref.org/member/311",
                    "tokenized": {
                      "prefix": "member",
                      "suffix": "311"
                    }
                  },
                  {
                    "uri": "http://id.crossref.org/item/1400506",
                    "tokenized": {
                      "prefix": "item",
                      "suffix": "1400506"
                    }
                  }
                ],
                "relationships": [],
                "properties": [],
                "pk": 1400506
              }
            ]
          }
        ],
        "properties": [
          {
            "values": {
              "type": "resolution",
              "subtype": "primary"
            },
            "asserted-by": [
              {
                "identifiers": [
                  {
                    "uri": "https://id.crossref.org/member/311",
                    "tokenized": {
                      "prefix": "member",
                      "suffix": "311"
                    }
                  },
                  {
                    "uri": "http://id.crossref.org/item/1400506",
                    "tokenized": {
                      "prefix": "item",
                      "suffix": "1400506"
                    }
                  }
                ],
                "relationships": [],
                "properties": [],
                "pk": 1400506
              }
            ]
          }
        ],
        "pk": 1731638
      },
      "asserted-by": [
        {
          "identifiers": [
            {
              "uri": "https://id.crossref.org/member/311",
              "tokenized": {
                "prefix": "member",
                "suffix": "311"
              }
            },
            {
              "uri": "http://id.crossref.org/item/1400506",
              "tokenized": {
                "prefix": "item",
                "suffix": "1400506"
              }
            }
          ],
          "relationships": [],
          "properties": [],
          "pk": 1400506
        }
      ]
    },
    {
      "relationship-type": "license",
      "object": {
        "identifiers": [
          {
            "uri": "https://id.crossref.org/blank/cdf3f09ad03b9ab0a14e2c5083051eb345e44eab",
            "tokenized": {
              "prefix": "cr-blank",
              "suffix": "cdf3f09ad03b9ab0a14e2c5083051eb345e44eab"
            }
          }
        ],
        "relationships": [],
        "properties": [
          {
            "values": {
              "type": "url",
              "start": {
                "day": 1,
                "type": "date",
                "year": 2015,
                "month": 9
              },
              "value": "http://doi.wiley.com/10.1002/tdm_license_1.1",
              "content-version": "tdm"
            },
            "asserted-by": [
              {
                "identifiers": [
                  {
                    "uri": "https://id.crossref.org/member/311",
                    "tokenized": {
                      "prefix": "member",
                      "suffix": "311"
                    }
                  },
                  {
                    "uri": "http://id.crossref.org/item/1400506",
                    "tokenized": {
                      "prefix": "item",
                      "suffix": "1400506"
                    }
                  }
                ],
                "relationships": [],
                "properties": [],
                "pk": 1400506
              }
            ]
          }
        ],
        "pk": 1808404
      },
      "asserted-by": [
        {
          "identifiers": [
            {
              "uri": "https://id.crossref.org/member/311",
              "tokenized": {
                "prefix": "member",
                "suffix": "311"
              }
            },
            {
              "uri": "http://id.crossref.org/item/1400506",
              "tokenized": {
                "prefix": "item",
                "suffix": "1400506"
              }
            }
          ],
          "relationships": [],
          "properties": [],
          "pk": 1400506
        }
      ]
    },
    {
      "relationship-type": "steward",
      "object": {
        "identifiers": [
          {
            "uri": "https://id.crossref.org/member/311",
            "tokenized": {
              "prefix": "member",
              "suffix": "311"
            }
          }
        ],
        "relationships": [
          {
            "relationship-type": "member-of",
            "object": {
              "identifiers": [
                {
                  "uri": "https://ror.org/02twcfp32",
                  "tokenized": {
                    "prefix": "ror",
                    "suffix": "02twcfp32"
                  }
                }
              ],
              "relationships": [],
              "properties": [],
              "pk": 1358648
            },
            "asserted-by": [
              {
                "identifiers": [
                  {
                    "uri": "https://ror.org/02twcfp32",
                    "tokenized": {
                      "prefix": "ror",
                      "suffix": "02twcfp32"
                    }
                  },
                  {
                    "uri": "http://id.crossref.org/item/1358648",
                    "tokenized": {
                      "prefix": "item",
                      "suffix": "1358648"
                    }
                  }
                ],
                "relationships": [],
                "properties": [],
                "pk": 1358648
              }
            ]
          }
        ],
        "properties": [],
        "pk": 1400506
      },
      "asserted-by": [
        {
          "identifiers": [
            {
              "uri": "https://ror.org/02twcfp32",
              "tokenized": {
                "prefix": "ror",
                "suffix": "02twcfp32"
              }
            },
            {
              "uri": "http://id.crossref.org/item/1358648",
              "tokenized": {
                "prefix": "item",
                "suffix": "1358648"
              }
            }
          ],
          "relationships": [],
          "properties": [],
          "pk": 1358648
        }
      ]
    },
    {
      "relationship-type": "registration-agency",
      "object": {
        "identifiers": [
          {
            "uri": "https://ror.org/02twcfp32",
            "tokenized": {
              "prefix": "ror",
              "suffix": "02twcfp32"
            }
          }
        ],
        "relationships": [],
        "properties": [],
        "pk": 1358648
      },
      "asserted-by": [
        {
          "identifiers": [
            {
              "uri": "https://ror.org/02twcfp32",
              "tokenized": {
                "prefix": "ror",
                "suffix": "02twcfp32"
              }
            },
            {
              "uri": "http://id.crossref.org/item/1358648",
              "tokenized": {
                "prefix": "item",
                "suffix": "1358648"
              }
            }
          ],
          "relationships": [],
          "properties": [],
          "pk": 1358648
        }
      ]
    },
    {
      "relationship-type": "ancestor",
      "object": {
        "identifiers": [
          {
            "uri": "https://doi.org/10.1002/zoo.v20:6",
            "tokenized": {
              "prefix": "doi",
              "suffix": "10.1002/zoo.v20:6"
            }
          }
        ],
        "relationships": [
          {
            "relationship-type": "steward",
            "object": {
              "identifiers": [
                {
                  "uri": "https://id.crossref.org/member/311",
                  "tokenized": {
                    "prefix": "member",
                    "suffix": "311"
                  }
                }
              ],
              "relationships": [
                {
                  "relationship-type": "member-of",
                  "object": {
                    "identifiers": [
                      {
                        "uri": "https://ror.org/02twcfp32",
                        "tokenized": {
                          "prefix": "ror",
                          "suffix": "02twcfp32"
                        }
                      }
                    ],
                    "relationships": [],
                    "properties": [],
                    "pk": 1358648
                  },
                  "asserted-by": [
                    {
                      "identifiers": [
                        {
                          "uri": "https://ror.org/02twcfp32",
                          "tokenized": {
                            "prefix": "ror",
                            "suffix": "02twcfp32"
                          }
                        },
                        {
                          "uri": "http://id.crossref.org/item/1358648",
                          "tokenized": {
                            "prefix": "item",
                            "suffix": "1358648"
                          }
                        }
                      ],
                      "relationships": [],
                      "properties": [],
                      "pk": 1358648
                    }
                  ]
                }
              ],
              "properties": [],
              "pk": 1400506
            },
            "asserted-by": [
              {
                "identifiers": [
                  {
                    "uri": "https://ror.org/02twcfp32",
                    "tokenized": {
                      "prefix": "ror",
                      "suffix": "02twcfp32"
                    }
                  },
                  {
                    "uri": "http://id.crossref.org/item/1358648",
                    "tokenized": {
                      "prefix": "item",
                      "suffix": "1358648"
                    }
                  }
                ],
                "relationships": [],
                "properties": [],
                "pk": 1358648
              }
            ]
          },
          {
            "relationship-type": "registration-agency",
            "object": {
              "identifiers": [
                {
                  "uri": "https://ror.org/02twcfp32",
                  "tokenized": {
                    "prefix": "ror",
                    "suffix": "02twcfp32"
                  }
                }
              ],
              "relationships": [],
              "properties": [],
              "pk": 1358648
            },
            "asserted-by": [
              {
                "identifiers": [
                  {
                    "uri": "https://ror.org/02twcfp32",
                    "tokenized": {
                      "prefix": "ror",
                      "suffix": "02twcfp32"
                    }
                  },
                  {
                    "uri": "http://id.crossref.org/item/1358648",
                    "tokenized": {
                      "prefix": "item",
                      "suffix": "1358648"
                    }
                  }
                ],
                "relationships": [],
                "properties": [],
                "pk": 1358648
              }
            ]
          },
          {
            "relationship-type": "resource-resolution",
            "object": {
              "identifiers": [
                {
                  "uri": "https://id.crossref.org/blank/469fd3767936ce2047e9255612915e04ba340784",
                  "tokenized": {
                    "prefix": "cr-blank",
                    "suffix": "469fd3767936ce2047e9255612915e04ba340784"
                  }
                }
              ],
              "relationships": [
                {
                  "relationship-type": "web-resource",
                  "object": {
                    "identifiers": [
                      {
                        "uri": "http://doi.wiley.com/10.1002/zoo.v20%3A6",
                        "tokenized": {
                          "prefix": "non-persistent",
                          "suffix": "http://doi.wiley.com/10.1002/zoo.v20%3A6"
                        }
                      }
                    ],
                    "relationships": [],
                    "properties": [
                      {
                        "values": {
                          "type": "web-resource"
                        },
                        "asserted-by": [
                          {
                            "identifiers": [
                              {
                                "uri": "https://id.crossref.org/member/311",
                                "tokenized": {
                                  "prefix": "member",
                                  "suffix": "311"
                                }
                              },
                              {
                                "uri": "http://id.crossref.org/item/1400506",
                                "tokenized": {
                                  "prefix": "item",
                                  "suffix": "1400506"
                                }
                              }
                            ],
                            "relationships": [],
                            "properties": [],
                            "pk": 1400506
                          }
                        ]
                      }
                    ],
                    "pk": 164833
                  },
                  "asserted-by": [
                    {
                      "identifiers": [
                        {
                          "uri": "https://id.crossref.org/member/311",
                          "tokenized": {
                            "prefix": "member",
                            "suffix": "311"
                          }
                        },
                        {
                          "uri": "http://id.crossref.org/item/1400506",
                          "tokenized": {
                            "prefix": "item",
                            "suffix": "1400506"
                          }
                        }
                      ],
                      "relationships": [],
                      "properties": [],
                      "pk": 1400506
                    }
                  ]
                }
              ],
              "properties": [
                {
                  "values": {
                    "type": "resolution",
                    "subtype": "primary"
                  },
                  "asserted-by": [
                    {
                      "identifiers": [
                        {
                          "uri": "https://id.crossref.org/member/311",
                          "tokenized": {
                            "prefix": "member",
                            "suffix": "311"
                          }
                        },
                        {
                          "uri": "http://id.crossref.org/item/1400506",
                          "tokenized": {
                            "prefix": "item",
                            "suffix": "1400506"
                          }
                        }
                      ],
                      "relationships": [],
                      "properties": [],
                      "pk": 1400506
                    }
                  ]
                }
              ],
              "pk": 652669
            },
            "asserted-by": [
              {
                "identifiers": [
                  {
                    "uri": "https://id.crossref.org/member/311",
                    "tokenized": {
                      "prefix": "member",
                      "suffix": "311"
                    }
                  },
                  {
                    "uri": "http://id.crossref.org/item/1400506",
                    "tokenized": {
                      "prefix": "item",
                      "suffix": "1400506"
                    }
                  }
                ],
                "relationships": [],
                "properties": [],
                "pk": 1400506
              }
            ]
          },
          {
            "relationship-type": "resource-resolution",
            "object": {
              "identifiers": [
                {
                  "uri": "https://id.crossref.org/blank/7ddd5e78f9ccd2beca8ab422e9a72dd4ba7938de",
                  "tokenized": {
                    "prefix": "cr-blank",
                    "suffix": "7ddd5e78f9ccd2beca8ab422e9a72dd4ba7938de"
                  }
                }
              ],
              "relationships": [
                {
                  "relationship-type": "web-resource",
                  "object": {
                    "identifiers": [
                      {
                        "uri": "http://doi.wiley.com/10.1002/zoo.v20:6",
                        "tokenized": {
                          "prefix": "non-persistent",
                          "suffix": "http://doi.wiley.com/10.1002/zoo.v20:6"
                        }
                      }
                    ],
                    "relationships": [],
                    "properties": [
                      {
                        "values": {
                          "type": "web-resource"
                        },
                        "asserted-by": [
                          {
                            "identifiers": [
                              {
                                "uri": "https://id.crossref.org/member/311",
                                "tokenized": {
                                  "prefix": "member",
                                  "suffix": "311"
                                }
                              },
                              {
                                "uri": "http://id.crossref.org/item/1400506",
                                "tokenized": {
                                  "prefix": "item",
                                  "suffix": "1400506"
                                }
                              }
                            ],
                            "relationships": [],
                            "properties": [],
                            "pk": 1400506
                          }
                        ]
                      }
                    ],
                    "pk": 1731636
                  },
                  "asserted-by": [
                    {
                      "identifiers": [
                        {
                          "uri": "https://id.crossref.org/member/311",
                          "tokenized": {
                            "prefix": "member",
                            "suffix": "311"
                          }
                        },
                        {
                          "uri": "http://id.crossref.org/item/1400506",
                          "tokenized": {
                            "prefix": "item",
                            "suffix": "1400506"
                          }
                        }
                      ],
                      "relationships": [],
                      "properties": [],
                      "pk": 1400506
                    }
                  ]
                }
              ],
              "properties": [
                {
                  "values": {
                    "type": "resolution",
                    "subtype": "primary"
                  },
                  "asserted-by": [
                    {
                      "identifiers": [
                        {
                          "uri": "https://id.crossref.org/member/311",
                          "tokenized": {
                            "prefix": "member",
                            "suffix": "311"
                          }
                        },
                        {
                          "uri": "http://id.crossref.org/item/1400506",
                          "tokenized": {
                            "prefix": "item",
                            "suffix": "1400506"
                          }
                        }
                      ],
                      "relationships": [],
                      "properties": [],
                      "pk": 1400506
                    }
                  ]
                }
              ],
              "pk": 1782937
            },
            "asserted-by": [
              {
                "identifiers": [
                  {
                    "uri": "https://id.crossref.org/member/311",
                    "tokenized": {
                      "prefix": "member",
                      "suffix": "311"
                    }
                  },
                  {
                    "uri": "http://id.crossref.org/item/1400506",
                    "tokenized": {
                      "prefix": "item",
                      "suffix": "1400506"
                    }
                  }
                ],
                "relationships": [],
                "properties": [],
                "pk": 1400506
              }
            ]
          }
        ],
        "properties": [
          {
            "values": {
              "type": "work",
              "issue": "6",
              "subtype": "journal-issue",
              "numbering": null,
              "published-print": {
                "day": null,
                "type": "date",
                "year": "2001",
                "month": 12,
                "time-of-year": null
              },
              "published-online": null
            },
            "asserted-by": [
              {
                "identifiers": [
                  {
                    "uri": "https://id.crossref.org/member/311",
                    "tokenized": {
                      "prefix": "member",
                      "suffix": "311"
                    }
                  },
                  {
                    "uri": "http://id.crossref.org/item/1400506",
                    "tokenized": {
                      "prefix": "item",
                      "suffix": "1400506"
                    }
                  }
                ],
                "relationships": [],
                "properties": [],
                "pk": 1400506
              }
            ]
          }
        ],
        "pk": 652668
      },
      "asserted-by": [
        {
          "identifiers": [
            {
              "uri": "https://id.crossref.org/member/311",
              "tokenized": {
                "prefix": "member",
                "suffix": "311"
              }
            },
            {
              "uri": "http://id.crossref.org/item/1400506",
              "tokenized": {
                "prefix": "item",
                "suffix": "1400506"
              }
            }
          ],
          "relationships": [],
          "properties": [],
          "pk": 1400506
        }
      ]
    },
    {
      "relationship-type": "ancestor",
      "object": {
        "identifiers": [
          {
            "uri": "https://id.crossref.org/blank/98bd1d5b96dbcba5a105ea9e8ec3b94d00049123",
            "tokenized": {
              "prefix": "cr-blank",
              "suffix": "98bd1d5b96dbcba5a105ea9e8ec3b94d00049123"
            }
          }
        ],
        "relationships": [],
        "properties": [
          {
            "values": {
              "type": "work",
              "volume": "20",
              "subtype": "journal-volume"
            },
            "asserted-by": [
              {
                "identifiers": [
                  {
                    "uri": "https://id.crossref.org/member/311",
                    "tokenized": {
                      "prefix": "member",
                      "suffix": "311"
                    }
                  },
                  {
                    "uri": "http://id.crossref.org/item/1400506",
                    "tokenized": {
                      "prefix": "item",
                      "suffix": "1400506"
                    }
                  }
                ],
                "relationships": [],
                "properties": [],
                "pk": 1400506
              }
            ]
          }
        ],
        "pk": 1808407
      },
      "asserted-by": [
        {
          "identifiers": [
            {
              "uri": "https://id.crossref.org/member/311",
              "tokenized": {
                "prefix": "member",
                "suffix": "311"
              }
            },
            {
              "uri": "http://id.crossref.org/item/1400506",
              "tokenized": {
                "prefix": "item",
                "suffix": "1400506"
              }
            }
          ],
          "relationships": [],
          "properties": [],
          "pk": 1400506
        }
      ]
    }
  ],
  "properties": [
    {
      "values": {
        "type": "work",
        "title": {
          "type": "title",
          "value": "Hormonal and behavioral relationships during estrus in the giant panda",
          "subtype": "long"
        },
        "subtype": "journal-article",
        "last-page": "543",
        "first-page": "537",
        "other-pages": null,
        "published-print": {
          "day": null,
          "type": "date",
          "year": "2001",
          "month": 12,
          "time-of-year": null
        },
        "published-online": {
          "day": null,
          "type": "date",
          "year": "2002",
          "month": null,
          "time-of-year": null
        }
      },
      "asserted-by": [
        {
          "identifiers": [
            {
              "uri": "https://id.crossref.org/member/311",
              "tokenized": {
                "prefix": "member",
                "suffix": "311"
              }
            },
            {
              "uri": "http://id.crossref.org/item/1400506",
              "tokenized": {
                "prefix": "item",
                "suffix": "1400506"
              }
            }
          ],
          "relationships": [],
          "properties": [],
          "pk": 1400506
        }
      ]
    }
  ],
  "pk": 48314
}